[ { "listTitle": "title-icon", "isListWithIcons": true,
    "listEntries": [
      { "keys":   [ { "key": "k-manmade", "href": "https://wiki.openstreetmap.org/wiki/Key:man_made" } ],
        "values": [ { "value": "v-surveillance", "href": "https://wiki.openstreetmap.org/wiki/Tag:man_made%3Dsurveillance" } ],
        "icon":   null },
      { "keys":   [ { "key": "k-surveillance", "href": "https://wiki.openstreetmap.org/wiki/Key:surveillance" } ],
        "values": [ { "value": "v-public" } ],
        "icon":   { "src": "colorRed.png", "alt": "icon-public-alt" } },
      { "keys":   [ { "key": "k-surveillance", "href": "https://wiki.openstreetmap.org/wiki/Key:surveillance" } ],
        "values": [ { "value": "v-outdoor" } ],
        "icon":   { "src": "colorBlue.png", "alt": "icon-outdoor-alt" } },
      { "keys":   [ { "key": "k-surveillance", "href": "https://wiki.openstreetmap.org/wiki/Key:surveillance" } ],
        "values": [ { "value": "v-indoor" } ],
        "icon":   { "src": "colorGreen.png", "alt": "icon-indoor-alt" } },
      { "keys":   [ { "key": "k-surv-type", "href": "https://wiki.openstreetmap.org/wiki/Key:surveillance:type" } ],
        "values": [ { "value": "v-camera" } ],
        "icon":   { "src": "cam.png", "alt": "icon-cam-alt" } },
      { "keys":   [ { "key": "k-surv-type", "href": "https://wiki.openstreetmap.org/wiki/Key:surveillance:type" }, { "key": "k-cam-type", "href": "https://wiki.openstreetmap.org/wiki/Proposed_features/Extended_tags_for_Key:Surveillance#Camera" } ],
        "values": [ { "value": "v-camera" }, { "value": "v-fixed" } ],
        "icon":   { "src": "fixed.png", "alt": "icon-fixed-alt" } },
      { "keys":   [ { "key": "k-surv-type", "href": "https://wiki.openstreetmap.org/wiki/Key:surveillance:type" }, { "key": "k-cam-type", "href": "https://wiki.openstreetmap.org/wiki/Proposed_features/Extended_tags_for_Key:Surveillance#Camera" } ],
        "values": [ { "value": "v-camera" }, { "value": "v-panning" } ],
        "icon":   { "src": "panning.png", "alt": "icon-panning-alt" } },
      { "keys": [ { "key": "k-surv-type", "href": "https://wiki.openstreetmap.org/wiki/Key:surveillance:type" }, { "key": "k-cam-type", "href": "https://wiki.openstreetmap.org/wiki/Proposed_features/Extended_tags_for_Key:Surveillance#Camera" } ],
        "values": [ { "value": "v-camera" }, { "value": "v-dome" } ],
        "icon": { "src": "dome.png", "alt": "icon-dome-alt" } },
      { "keys": [ { "key": "k-surv-type", "href": "https://wiki.openstreetmap.org/wiki/Key:surveillance:type" } ],
        "values": [ { "value": "v-guard" } ],
        "icon": { "src": "guard.png", "alt": "icon-guard-alt" } },
      { "keys": [ { "key": "k-surv-type", "href": "https://wiki.openstreetmap.org/wiki/Key:surveillance:type" } ],
        "values": [ { "value": "v-alpr" } ],
        "icon": { "src": "traffic.png", "alt": "icon-alpr-alt" } } ] },
  { "listTitle": "title-view", "isListWithIcons": false,
    "listEntries": [
      { "keys":   [ { "key": "k-surv-type", "href": "https://wiki.openstreetmap.org/wiki/Key:surveillance:type" } ],
        "values": [ { "value": "v-camera" } ] },
      { "keys": [ { "key": "k-cam-type", "href": "https://wiki.openstreetmap.org/wiki/Proposed_features/Extended_tags_for_Key:Surveillance#Camera" } ],
        "values": [ { "value": "v-fixed" } ] },
      { "keys": [ { "key": "k-cam-direction", "href": "https://wiki.openstreetmap.org/wiki/Proposed_features/Extended_tags_for_Key:Surveillance#Camera" } ],
        "values": [ { "value": "v-direction-0" }, { "value": "v-direction-1" } ] },
      { "keys": [ { "key": "k-cam-angle", "href": "https://wiki.openstreetmap.org/wiki/Proposed_features/Extended_tags_for_Key:Surveillance#Camera" } ],
        "values": [ { "value": "v-angle-0" }, { "value": "v-angle-1" }, { "value": "v-angle-2" } ] },
      { "keys": [ { "key": "k-height", "href": "https://wiki.openstreetmap.org/wiki/Key:height" } ],
        "values": [ { "value": "v-height-0" }, { "value": "v-height-1" } ] } ],
    "examples": {
      "images": [ { "src": "fixed_z-17_d-90_a-15_h-5.png", "alt": "example-img-0-alt" }, { "src": "fixed_z-17_d-90_a-15_h-10.png", "alt": "example-img-1-alt" }, { "src": "fixed_z-17_d-90_a-60_h-10.png", "alt": "example-img-2-alt" } ],
      "descriptions": [ { "lines": [ "example-direction-90", "example-angle-15", "example-height-5" ] }, { "lines": [ "example-direction-90", "example-angle-15", "example-height-10" ] }, { "lines": [ "example-direction-90", "example-angle-60", "example-height-10" ] } ] } },
  { "listTitle": "title-optional", "isListWithIcons": false,
    "listEntries": [
      { "keys": [ { "key": "k-surv-zone", "href": "https://wiki.openstreetmap.org/wiki/Key:surveillance:zone" } ],
        "values": [ { "value": "v-surv-zone" } ] },
      { "keys": [ { "key": "k-cam-mount", "href": "https://wiki.openstreetmap.org/wiki/Proposed_features/Extended_tags_for_Key:Surveillance#Camera" } ],
        "values": [ { "value": "v-cam-mount" } ] },
      { "keys": [ { "key": "k-operator", "href": "https://wiki.openstreetmap.org/wiki/Key:operator" } ],
        "values": [ { "value": "v-operator" } ] },
      { "keys": [ { "key": "k-name", "href": "https://wiki.openstreetmap.org/wiki/Key:name" } ],
        "values": [ { "value": "v-name" } ] },
      { "keys": [ { "key": "k-ref", "href": "https://wiki.openstreetmap.org/wiki/Key:ref" } ],
        "values": [ { "value": "v-ref" } ] },
      { "keys": [ { "key": "k-image", "href": "https://wiki.openstreetmap.org/wiki/Key:image" } ],
        "values": [ { "value": "v-image" } ] }
    ] }
]
